project/m3/sim/tb_top.vcd
$date
	Sun May 24 18:00:18 2026
$end
$version
	Icarus Verilog
$end
$timescale
	1ps
$end
$scope module tb_top $end
$var wire 1 ! s_axis_weight_tready $end
$var wire 1 " s_axis_pixel_tready $end
$var wire 1 # s_axil_wready $end
$var wire 1 $ s_axil_rvalid $end
$var wire 2 % s_axil_rresp [1:0] $end
$var wire 32 & s_axil_rdata [31:0] $end
$var wire 1 ' s_axil_bvalid $end
$var wire 2 ( s_axil_bresp [1:0] $end
$var wire 1 ) s_axil_awready $end
$var wire 1 * s_axil_arready $end
$var wire 1 + m_axis_result_tvalid $end
$var wire 1 , m_axis_result_tlast $end
$var wire 8 - m_axis_result_tdata [7:0] $end
$var wire 1 . irq $end
$var parameter 32 / DW $end
$var parameter 8 0 EXPECTED $end
$var parameter 32 1 IH $end
$var parameter 32 2 IW $end
$var parameter 32 3 KSZ $end
$var parameter 32 4 OH $end
$var parameter 32 5 OW $end
$var parameter 32 6 QS $end
$var reg 8 7 captured_result [7:0] $end
$var reg 1 8 clk $end
$var reg 1 9 m_axis_result_tready $end
$var reg 1 : result_captured $end
$var reg 1 ; rst $end
$var reg 8 < s_axil_araddr [7:0] $end
$var reg 1 = s_axil_arvalid $end
$var reg 8 > s_axil_awaddr [7:0] $end
$var reg 1 ? s_axil_awvalid $end
$var reg 1 @ s_axil_bready $end
$var reg 1 A s_axil_rready $end
$var reg 32 B s_axil_wdata [31:0] $end
$var reg 4 C s_axil_wstrb [3:0] $end
$var reg 1 D s_axil_wvalid $end
$var reg 8 E s_axis_pixel_tdata [7:0] $end
$var reg 1 F s_axis_pixel_tlast $end
$var reg 1 G s_axis_pixel_tvalid $end
$var reg 8 H s_axis_weight_tdata [7:0] $end
$var reg 1 I s_axis_weight_tlast $end
$var reg 1 J s_axis_weight_tvalid $end
$var reg 32 K tmp_rdata [31:0] $end
$var reg 2 L tmp_resp [1:0] $end
$var integer 32 M fail_cnt [31:0] $end
$var integer 32 N log_fd [31:0] $end
$var integer 32 O pass_cnt [31:0] $end
$scope module dut $end
$var wire 1 8 clk $end
$var wire 1 9 m_axis_result_tready $end
$var wire 1 ; rst $end
$var wire 8 P s_axil_araddr [7:0] $end
$var wire 1 = s_axil_arvalid $end
$var wire 8 Q s_axil_awaddr [7:0] $end
$var wire 1 ? s_axil_awvalid $end
$var wire 1 @ s_axil_bready $end
$var wire 1 A s_axil_rready $end
$var wire 32 R s_axil_wdata [31:0] $end
$var wire 4 S s_axil_wstrb [3:0] $end
$var wire 1 D s_axil_wvalid $end
$var wire 8 T s_axis_pixel_tdata [7:0] $end
$var wire 1 F s_axis_pixel_tlast $end
$var wire 1 G s_axis_pixel_tvalid $end
$var wire 8 U s_axis_weight_tdata [7:0] $end
$var wire 1 I s_axis_weight_tlast $end
$var wire 1 J s_axis_weight_tvalid $end
$var wire 1 ! s_axis_weight_tready $end
$var wire 1 " s_axis_pixel_tready $end
$var wire 1 # s_axil_wready $end
$var wire 1 $ s_axil_rvalid $end
$var wire 2 V s_axil_rresp [1:0] $end
$var wire 32 W s_axil_rdata [31:0] $end
$var wire 1 ' s_axil_bvalid $end
$var wire 2 X s_axil_bresp [1:0] $end
$var wire 1 ) s_axil_awready $end
$var wire 1 * s_axil_arready $end
$var wire 1 + m_axis_result_tvalid $end
$var wire 1 , m_axis_result_tlast $end
$var wire 8 Y m_axis_result_tdata [7:0] $end
$var wire 1 . irq $end
$var parameter 32 Z AXIL_AW $end
$var parameter 32 [ AXIL_DW $end
$var parameter 32 \ IMG_H_DEF $end
$var parameter 32 ] IMG_W_DEF $end
$var parameter 32 ^ KSZ $end
$var parameter 32 _ NUM_CH_DEF $end
$var parameter 32 ` QS_DEF $end
$var parameter 32 a STREAM_W $end
$scope module u_ctrl $end
$var wire 1 8 clk $end
$var wire 8 b core_pix_tdata [7:0] $end
$var wire 1 c core_pix_tlast $end
$var wire 1 d core_pix_tvalid $end
$var wire 1 e core_res_tready $end
$var wire 1 f core_rst $end
$var wire 8 g core_wt_tdata [7:0] $end
$var wire 1 h core_wt_tlast $end
$var wire 1 i core_wt_tvalid $end
$var wire 1 . irq $end
$var wire 8 j m_axis_result_tdata [7:0] $end
$var wire 1 , m_axis_result_tlast $end
$var wire 1 9 m_axis_result_tready $end
$var wire 1 + m_axis_result_tvalid $end
$var wire 1 k pix_row_done $end
$var wire 1 ; rst $end
$var wire 8 l s_axil_araddr [7:0] $end
$var wire 1 = s_axil_arvalid $end
$var wire 8 m s_axil_awaddr [7:0] $end
$var wire 1 ) s_axil_awready $end
$var wire 1 ? s_axil_awvalid $end
$var wire 1 @ s_axil_bready $end
$var wire 1 A s_axil_rready $end
$var wire 32 n s_axil_wdata [31:0] $end
$var wire 1 # s_axil_wready $end
$var wire 4 o s_axil_wstrb [3:0] $end
$var wire 1 D s_axil_wvalid $end
$var wire 8 p s_axis_pixel_tdata [7:0] $end
$var wire 1 F s_axis_pixel_tlast $end
$var wire 1 " s_axis_pixel_tready $end
$var wire 1 G s_axis_pixel_tvalid $end
$var wire 8 q s_axis_weight_tdata [7:0] $end
$var wire 1 I s_axis_weight_tlast $end
$var wire 1 ! s_axis_weight_tready $end
$var wire 1 J s_axis_weight_tvalid $end
$var wire 1 r wr_fire $end
$var wire 1 s r_start $end
$var wire 1 t r_soft_rst $end
$var wire 8 u r_qshift [7:0] $end
$var wire 16 v r_num_ch [15:0] $end
$var wire 16 w r_img_w [15:0] $end
$var wire 16 x r_img_h [15:0] $end
$var wire 1 y r_err_en $end
$var wire 1 z r_done_en $end
$var wire 2 { irq_stat_sw_clr [1:0] $end
$var wire 2 | irq_stat_hw_set [1:0] $end
$var wire 1 } core_wt_tready $end
$var wire 1 ~ core_res_tvalid $end
$var wire 1 !" core_res_tlast $end
$var wire 8 "" core_res_tdata [7:0] $end
$var wire 1 #" core_pix_tready $end
$var parameter 32 $" AXIL_AW $end
$var parameter 32 %" AXIL_DW $end
$var parameter 32 &" IMG_H_DEF $end
$var parameter 32 '" IMG_W_DEF $end
$var parameter 32 (" KSZ $end
$var parameter 32 )" NUM_CH_DEF $end
$var parameter 32 *" QS_DEF $end
$var parameter 32 +" STREAM_W $end
$var reg 8 ," ar_addr [7:0] $end
$var reg 1 -" ar_pend $end
$var reg 8 ." aw_addr [7:0] $end
$var reg 1 /" aw_pend $end
$var reg 1 0" done_latch $end
$var reg 2 1" fsm [1:0] $end
$var reg 16 2" pix_row_cnt [15:0] $end
$var reg 1 * s_axil_arready $end
$var reg 2 3" s_axil_bresp [1:0] $end
$var reg 1 ' s_axil_bvalid $end
$var reg 32 4" s_axil_rdata [31:0] $end
$var reg 2 5" s_axil_rresp [1:0] $end
$var reg 1 $ s_axil_rvalid $end
$var reg 1 6" soft_rst_r $end
$var reg 32 7" w_data [31:0] $end
$var reg 1 8" w_pend $end
$var reg 4 9" w_strb [3:0] $end
$scope module u_compute_core $end
$var wire 1 8 clk $end
$var wire 1 e m_axis_result_tready $end
$var wire 1 :" out_stall $end
$var wire 1 ;" pixel_fire $end
$var wire 1 f rst $end
$var wire 8 <" s_axis_pixel_tdata [7:0] $end
$var wire 1 c s_axis_pixel_tlast $end
$var wire 1 #" s_axis_pixel_tready $end
$var wire 1 d s_axis_pixel_tvalid $end
$var wire 8 =" s_axis_weight_tdata [7:0] $end
$var wire 1 h s_axis_weight_tlast $end
$var wire 1 } s_axis_weight_tready $end
$var wire 1 i s_axis_weight_tvalid $end
$var wire 1 >" win_valid $end
$var wire 8 ?" quant [7:0] $end
$var wire 20 @" acc_shifted [19:0] $end
$var parameter 32 A" ACC_W $end
$var parameter 32 B" COL_BITS $end
$var parameter 32 C" DATA_WIDTH $end
$var parameter 32 D" IMAGE_WIDTH $end
$var parameter 32 E" KERNEL_SIZE $end
$var parameter 32 F" KSZ $end
$var parameter 32 G" MUL_W $end
$var parameter 32 H" NTAPS $end
$var parameter 32 I" QUANT_SHIFT $end
$var parameter 20 J" SAT_MAX $end
$var parameter 20 K" SAT_MIN $end
$var reg 20 L" acc [19:0] $end
$var reg 2 M" col_cnt [1:0] $end
$var reg 8 N" m_axis_result_tdata [7:0] $end
$var reg 1 !" m_axis_result_tlast $end
$var reg 1 ~ m_axis_result_tvalid $end
$var reg 1 O" p0_last $end
$var reg 1 P" p0_valid $end
$var reg 1 Q" p1_last $end
$var reg 1 R" p1_valid $end
$var reg 1 S" p2_last $end
$var reg 1 T" p2_valid $end
$var reg 1 U" p3_last $end
$var reg 1 V" p3_valid $end
$var reg 1 W" p4_last $end
$var reg 1 X" p4_valid $end
$var reg 16 Y" row_cnt [15:0] $end
$var reg 1 Z" weights_loaded $end
$var reg 4 [" wt_idx [3:0] $end
$scope begin $ivl_for_loop0 $end
$var integer 32 \" i [31:0] $end
$upscope $end
$scope begin $ivl_for_loop1 $end
$var integer 32 ]" i [31:0] $end
$upscope $end
$scope begin $ivl_for_loop11 $end
$var integer 32 ^" i [31:0] $end
$upscope $end
$scope begin $ivl_for_loop12 $end
$var integer 32 _" i [31:0] $end
$upscope $end
$scope begin $ivl_for_loop13 $end
$var integer 32 `" i [31:0] $end
$upscope $end
$scope begin $ivl_for_loop2 $end
$var integer 32 a" r [31:0] $end
$scope begin $ivl_for_loop3 $end
$var integer 32 b" c [31:0] $end
$upscope $end
$upscope $end
$scope begin $ivl_for_loop4 $end
$var integer 32 c" r [31:0] $end
$scope begin $ivl_for_loop5 $end
$var integer 32 d" c [31:0] $end
$upscope $end
$upscope $end
$scope begin $ivl_for_loop6 $end
$var integer 32 e" r [31:0] $end
$scope begin $ivl_for_loop7 $end
$var integer 32 f" c [31:0] $end
$upscope $end
$upscope $end
$scope begin $ivl_for_loop8 $end
$var integer 32 g" i [31:0] $end
$upscope $end
$scope begin $ivl_for_loop9 $end
$var integer 32 h" r [31:0] $end
$scope begin $ivl_for_loop10 $end
$var integer 32 i" c [31:0] $end
$upscope $end
$upscope $end
$upscope $end
$scope begin $ivl_for_loop14 $end
$var integer 32 j" b [31:0] $end
$upscope $end
$scope begin $ivl_for_loop15 $end
$var integer 32 k" b [31:0] $end
$upscope $end
$scope begin $ivl_for_loop16 $end
$var integer 32 l" b [31:0] $end
$upscope $end
$scope begin $ivl_for_loop17 $end
$var integer 32 m" b [31:0] $end
$upscope $end
$scope begin $ivl_for_loop18 $end
$var integer 32 n" b [31:0] $end
$upscope $end
$upscope $end
$upscope $end
$scope begin $ivl_for_loop19 $end
$var integer 32 o" i [31:0] $end
$upscope $end
$scope begin $ivl_for_loop20 $end
$var integer 32 p" r [31:0] $end
$scope begin $ivl_for_loop21 $end
$var integer 32 q" c [31:0] $end
$upscope $end
$upscope $end
$scope task axil_read $end
$upscope $end
$scope task axil_write $end
$upscope $end
$upscope $end
$enddefinitions $end
$comment Show the parameter values. $end
$dumpall
b11111111111110000000 K"
b1111111 J"
b1000 I"
b1001 H"
b10000 G"
b11 F"
b11 E"
b11 D"
b1000 C"
b10 B"
b10100 A"
b1000 +"
b1000 *"
b1 )"
b11 ("
b11 '"
b11 &"
b100000 %"
b1000 $"
b1000 a
b1000 `
b1 _
b11 ^
b11 ]
b11 \
b100000 [
b1000 Z
b1000 6
b1 5
b1 4
b11 3
b11 2
b11 1
b0 0
b1000 /
$end
#0
$dumpvars
b0 q"
b0 p"
b0 o"
b0 n"
b0 m"
b0 l"
b0 k"
b0 j"
b0 i"
b0 h"
b0 g"
b0 f"
b0 e"
b0 d"
b0 c"
b10 b"
b11 a"
b0 `"
b0 _"
b0 ^"
b0 ]"
b0 \"
bx ["
xZ"
bx Y"
xX"
xW"
xV"
xU"
xT"
xS"
xR"
xQ"
xP"
xO"
bx N"
bx M"
bx L"
bx @"
bx ?"
0>"
b0 ="
b0 <"
0;"
0:"
bx 9"
x8"
bx 7"
x6"
bx 5"
bx 4"
bx 3"
bx 2"
bx 1"
x0"
x/"
bx ."
x-"
bx ,"
x#"
bx ""
x!"
x~
x}
b0x |
bx {
xz
xy
bx x
bx w
bx v
bx u
xt
xs
xr
b0 q
b0 p
b0 o
b0 n
b0 m
b0 l
0k
bx j
0i
0h
b0 g
1f
1e
0d
0c
b0 b
bx Y
bx X
bx W
bx V
b0 U
b0 T
b0 S
b0 R
b0 Q
b0 P
b0 O
b10000000000000000000000000000011 N
b0 M
bx L
bx K
0J
0I
b0 H
0G
0F
b0 E
0D
b0 C
b0 B
0A
0@
0?
b0 >
0=
b0 <
1;
0:
19
08
b0 7
x.
bx -
x,
x+
x*
x)
bx (
x'
bx &
bx %
x$
x#
x"
x!
$end
#5000
0.
b0 ?"
b0 {
0#"
1!
1}
b10 b"
b11 a"
b0 @"
1)
1#
0r
0"
0z
0y
b1000 u
b1 v
b11 w
b11 x
0s
0t
0Z"
b0 ["
b0 Y"
b0 M"
0O"
0P"
0Q"
0R"
0S"
0T"
0U"
0V"
0W"
0X"
b0 L"
0,
0!"
0+
0~
b0 -
b0 Y
b0 j
b0 ""
b0 N"
0/"
b0 ."
08"
b0 9"
b0 7"
b0 (
b0 X
b0 3"
0'
1*
0-"
b0 ,"
b0 %
b0 V
b0 5"
b0 &
b0 W
b0 4"
0$
00"
b0 2"
b0 |
b0 1"
06"
b10 `"
b11 _"
b101 ^"
b1001 g"
b11 c"
b11 d"
b11 ]"
b1001 \"
18
#10000
08
#15000
b10 `"
b11 _"
b101 ^"
b1001 g"
b11 d"
b11 c"
b11 ]"
b1001 \"
18
#20000
08
#25000
b10 `"
b11 _"
b101 ^"
b1001 g"
b11 d"
b11 c"
b11 ]"
b1001 \"
18
#30000
08
#35000
b10 `"
b11 _"
b101 ^"
b1001 g"
b11 d"
b11 c"
b11 ]"
b1001 \"
18
#36000
0f
0;
#40000
08
#45000
18
#46000
b1 o"
1i
1J
b1 g
b1 ="
b1 H
b1 U
b1 q
#50000
08
#55000
b1 ["
18
#56000
b10 o"
#60000
08
#65000
b10 ["
18
#66000
b11 o"
#70000
08
#75000
b11 ["
18
#76000
b100 o"
#80000
08
#85000
b100 ["
18
#86000
b101 o"
#90000
08
#95000
b101 ["
18
#96000
b110 o"
#100000
08
#105000
b110 ["
18
#106000
b111 o"
#110000
08
#115000
b111 ["
18
#116000
b1000 o"
#120000
08
#125000
b1000 ["
18
#126000
b1001 o"
1h
1I
#130000
08
#135000
1#"
0!
0}
b0 ["
1Z"
18
#136000
0h
0I
0i
0J
#140000
08
#145000
18
#146000
1D
b1111 C
b1111 S
b1111 o
b1 B
b1 R
b1 n
1?
#150000
08
#155000
0#
0)
1r
18"
b1111 9"
b1 7"
1/"
18
#156000
0D
0?
#160000
08
#165000
1s
1)
1#
0r
0/"
08"
1'
b100 j"
18
#166000
1@
#170000
08
#175000
1"
b1 1"
0'
18
#176000
b1 O
b0 L
0@
#180000
08
#185000
18
#190000
08
#195000
18
#200000
08
#205000
18
#206000
1;"
1d
b10 b"
b11 a"
b1 q"
1G
b1 b
b1 <"
b1 E
b1 T
b1 p
#210000
08
#215000
b10 b"
b11 a"
b1 M"
b11 e"
b11 f"
18
#216000
b10 b"
b11 a"
b10 q"
b10 b
b10 <"
b10 E
b10 T
b10 p
#220000
08
#225000
b10 b"
b11 a"
b10 M"
b11 f"
b11 e"
18
#226000
1k
b10 b"
b11 a"
b1 p"
b0 q"
1c
1F
b11 b
b11 <"
b11 E
b11 T
b11 p
#230000
08
#235000
b10 b"
b11 a"
b1 2"
b1 Y"
b0 M"
b11 f"
b11 e"
18
#236000
0k
b10 b"
b11 a"
b1 q"
0c
0F
b100 b
b100 <"
b100 E
b100 T
b100 p
#240000
08
#245000
b10 b"
b11 a"
b1 M"
b11 f"
b11 e"
18
#246000
b10 b"
b11 a"
b10 q"
b101 b
b101 <"
b101 E
b101 T
b101 p
#250000
08
#255000
b10 b"
b11 a"
b10 M"
b11 f"
b11 e"
18
#256000
1k
b10 b"
b11 a"
b10 p"
b0 q"
1c
1F
b110 b
b110 <"
b110 E
b110 T
b110 p
#260000
08
#265000
b10 b"
b11 a"
b10 Y"
b0 M"
b10 2"
b11 f"
b11 e"
18
#266000
0k
b10 b"
b11 a"
b1 q"
0c
0F
b111 b
b111 <"
b111 E
b111 T
b111 p
#270000
08
#275000
b10 b"
b11 a"
b1 M"
b11 f"
b11 e"
18
#276000
b10 b"
b11 a"
b10 q"
b1000 b
b1000 <"
b1000 E
b1000 T
b1000 p
#280000
08
#285000
1>"
b10 b"
b11 a"
b10 M"
b11 f"
b11 e"
18
#286000
1k
b10 b"
b11 a"
b11 p"
b11 q"
1c
1F
b1001 b
b1001 <"
b1001 E
b1001 T
b1001 p
#290000
08
#295000
0k
0;"
0d
0"
b10 b"
b11 a"
0>"
1O"
1P"
b1 |
b10 1"
b11 Y"
b0 M"
b11 f"
b11 e"
b11 h"
b11 i"
18
#296000
0c
0F
0G
#300000
08
#305000
0s
b0 |
b0 1"
10"
1Q"
1R"
0O"
0P"
18
#310000
08
#315000
1S"
1T"
0Q"
0R"
18
#320000
08
#325000
0S"
0T"
1U"
1V"
18
#330000
08
#335000
0U"
0V"
b101101 L"
1W"
1X"
18
#340000
08
#345000
0W"
0X"
1,
1!"
1+
1~
18
#346000
1:
#350000
08
#355000
0,
0!"
0+
0~
18
